Random Forest – Machine Learning Notes
…
i Creating pre-processing data to finalize unknown parameter: mtry

#doParallel::stopImplicitCluster()

saveRDS(ranger_tune, here("models", "model_outputs", "forest_tune.rds"))

Collect the tunning Metrics

collect_metrics(ranger_tune)

# A tibble: 33 × 8
    mtry min_n .metric     .estimator   mean     n std_err .config              
   <int> <int> <chr>       <chr>       <dbl> <int>   <dbl> <chr>                
 1     1    17 accuracy    binary     0.955      5 0.00162 Preprocessor1_Model01
 2     1    17 brier_class binary     0.0416     5 0.00140 Preprocessor1_Model01
 3     1    17 roc_auc     binary     0.689      5 0.00889 Preprocessor1_Model01
 4     1    32 accuracy    binary     0.955      5 0.00162 Preprocessor1_Model02
 5     1    32 brier_class binary     0.0416     5 0.00139 Preprocessor1_Model02
 6     1    32 roc_auc     binary     0.688      5 0.00810 Preprocessor1_Model02
 7     2     5 accuracy    binary     0.955      5 0.00157 Preprocessor1_Model03
 8     2     5 brier_class binary     0.0415     5 0.00132 Preprocessor1_Model03
 9     2     5 roc_auc     binary     0.688      5 0.0113  Preprocessor1_Model03
10     3    21 accuracy    binary     0.955      5 0.00162 Preprocessor1_Model04
# ℹ 23 more rows
…
carry_weapon_fit_forest <- fit(carry_weapon_final_workflow_forest, 
                               weapon_train)
carry_weapon_fit_forest

saveRDS(carry_weapon_fit_forest, here("models","model_outputs", "forest_fit.rds"))

Predictions: Review fit on the training data

weapon_pred_forest <-
  augment(carry_weapon_fit_forest, weapon_train) |>
  select(WeaponCarryingSchool, .pred_class, .pred_1, .pred_0)
weapon_pred_forest

# A tibble: 11,022 × 4
   WeaponCarryingSchool .pred_class .pred_1 .pred_0
   <fct>                <fct>         <dbl>   <dbl>
 1 0                    0            0.0470   0.953
 2 0                    0            0.0328   0.967
 3 0                    0            0.105    0.895
 4 0                    0            0.0470   0.953
 5 0                    0            0.0321   0.968
 6 0                    0            0.0321   0.968
 7 0                    0            0.0466   0.953
 8 0                    0            0.0470   0.953
 9 0                    0            0.0321   0.968
10 0                    0            0.0669   0.933
# ℹ 11,012 more rows
…
